<?xml version="1.0" encoding="UTF-8" standalone="no"?>
<!DOCTYPE svg PUBLIC "-//W3C//DTD SVG 1.1//EN"
 "http://www.w3.org/Graphics/SVG/1.1/DTD/svg11.dtd">
<!-- Generated by graphviz version 2.40.1 (20161225.0304)
 -->
<!-- Title: dependencies Pages: 1 -->
<svg width="504pt" height="211pt"
 viewBox="0.00 0.00 504.00 211.00" xmlns="http://www.w3.org/2000/svg" xmlns:xlink="http://www.w3.org/1999/xlink">
<g id="graph0" class="graph" transform="scale(1 1) rotate(0) translate(4 207)">
<title>dependencies</title>
<polygon fill="#ffffff" stroke="transparent" points="-4,4 -4,-207 500,-207 500,4 -4,4"/>
<text text-anchor="start" x="227.0091" y="-42.4" font-family="sans-serif" font-weight="bold" font-size="14.00" fill="#000000">Legend</text>
<polygon fill="#ffffb3" stroke="transparent" points="14,-10 14,-30 34,-30 34,-10 14,-10"/>
<text text-anchor="start" x="37.629" y="-15.4" font-family="sans-serif" font-size="14.00" fill="#000000"> &#160;Declarations</text>
<polygon fill="#8dd3c7" stroke="transparent" points="127,-10 127,-30 147,-30 147,-10 127,-10"/>
<text text-anchor="start" x="150.7251" y="-15.4" font-family="sans-serif" font-size="14.00" fill="#000000"> &#160;Module</text>
<polygon fill="#80b1d3" stroke="transparent" points="213,-10 213,-30 233,-30 233,-10 213,-10"/>
<text text-anchor="start" x="236.7812" y="-15.4" font-family="sans-serif" font-size="14.00" fill="#000000"> &#160;Bootstrap</text>
<polygon fill="#fdb462" stroke="transparent" points="310,-10 310,-30 330,-30 330,-10 310,-10"/>
<text text-anchor="start" x="333.6732" y="-15.4" font-family="sans-serif" font-size="14.00" fill="#000000"> &#160;Providers</text>
<polygon fill="#fb8072" stroke="transparent" points="406,-10 406,-30 426,-30 426,-10 406,-10"/>
<text text-anchor="start" x="429.7258" y="-15.4" font-family="sans-serif" font-size="14.00" fill="#000000"> &#160;Exports</text>
<g id="clust1" class="cluster">
<title>cluster_PublicConvocatoryPageModule</title>
<polygon fill="none" stroke="#000000" stroke-dasharray="1,5" points="24,-70 24,-195 472,-195 472,-70 24,-70"/>
</g>
<g id="clust2" class="cluster">
<title>cluster_PublicConvocatoryPageModule_declarations</title>
<polygon fill="none" stroke="#000000" points="296,-78 296,-130 464,-130 464,-78 296,-78"/>
</g>
<g id="clust4" class="cluster">
<title>cluster_PublicConvocatoryPageModule_imports</title>
<polygon fill="none" stroke="#000000" points="32,-78 32,-130 288,-130 288,-78 32,-78"/>
</g>
<!-- PublicConvocatoryPage -->
<g id="node1" class="node">
<title>PublicConvocatoryPage</title>
<polygon fill="#ffffb3" stroke="#000000" points="455.8075,-122 304.1925,-122 304.1925,-86 455.8075,-86 455.8075,-122"/>
<text text-anchor="middle" x="380" y="-99.8" font-family="Times,serif" font-size="14.00" fill="#000000">PublicConvocatoryPage</text>
</g>
<!-- PublicConvocatoryPageModule -->
<g id="node2" class="node">
<title>PublicConvocatoryPageModule</title>
<polygon fill="#8dd3c7" stroke="#000000" points="360.3571,-187 357.3571,-191 336.3571,-191 333.3571,-187 165.6429,-187 165.6429,-151 360.3571,-151 360.3571,-187"/>
<text text-anchor="middle" x="263" y="-164.8" font-family="Times,serif" font-size="14.00" fill="#000000">PublicConvocatoryPageModule</text>
</g>
<!-- PublicConvocatoryPage&#45;&gt;PublicConvocatoryPageModule -->
<g id="edge1" class="edge">
<title>PublicConvocatoryPage&#45;&gt;PublicConvocatoryPageModule</title>
<path fill="none" stroke="#000000" d="M332.3875,-122.1061C332.3875,-122.1061 332.3875,-140.991 332.3875,-140.991"/>
<polygon fill="#000000" stroke="#000000" points="328.8875,-140.9909 332.3875,-150.991 335.8875,-140.991 328.8875,-140.9909"/>
</g>
<!-- PublicConvocatoryPageRoutingModule -->
<g id="node3" class="node">
<title>PublicConvocatoryPageRoutingModule</title>
<polygon fill="#8dd3c7" stroke="#000000" points="279.9748,-122 276.9748,-126 255.9748,-126 252.9748,-122 40.0252,-122 40.0252,-86 279.9748,-86 279.9748,-122"/>
<text text-anchor="middle" x="160" y="-99.8" font-family="Times,serif" font-size="14.00" fill="#000000">PublicConvocatoryPageRoutingModule</text>
</g>
<!-- PublicConvocatoryPageRoutingModule&#45;&gt;PublicConvocatoryPageModule -->
<g id="edge2" class="edge">
<title>PublicConvocatoryPageRoutingModule&#45;&gt;PublicConvocatoryPageModule</title>
<path fill="none" stroke="#000000" d="M222.7795,-122.1061C222.7795,-122.1061 222.7795,-140.991 222.7795,-140.991"/>
<polygon fill="#000000" stroke="#000000" points="219.2795,-140.9909 222.7795,-150.991 226.2795,-140.991 219.2795,-140.9909"/>
</g>
</g>
</svg>
